Interpretabilidad de modelos
…
Aplicamos la función explain

explanation = explain(x = sample_explain[,-"subscribed"], #explicamos las observaciones seleccionadas
                      explainer = explainer_all, #con el objeto explainer
                      n_labels = 1, #vamos a explicar nuestros 2 labels 
                      n_features = 6, #cantidad de features a usar en la explicación
                      n_permutations = 5000, #cantidad de permutaciones a generar por obs
                      feature_select = "highest_weights", #método para la selección de variables
                      dist_fun = "gower", #medida de distancia entre la obs original y las permutaciones
                      kernel_width = 1.5 #ancho del kernel
                      ) 
#vemos el objeto
explanation

## # A tibble: 36 × 13
##    model_type   case  label label_prob model_r2 model_intercept model_prediction
##    <chr>        <chr> <chr>      <dbl>    <dbl>           <dbl>            <dbl>
##  1 classificat… 1     yes        0.515    0.694           0.277            0.515
##  2 classificat… 1     yes        0.515    0.694           0.277            0.515
##  3 classificat… 1     yes        0.515    0.694           0.277            0.515
##  4 classificat… 1     yes        0.515    0.694           0.277            0.515
##  5 classificat… 1     yes        0.515    0.694           0.277            0.515
##  6 classificat… 1     yes        0.515    0.694           0.277            0.515
##  7 classificat… 2     no         0.737    0.149           0.618            0.737
##  8 classificat… 2     no         0.737    0.149           0.618            0.737
##  9 classificat… 2     no         0.737    0.149           0.618            0.737
## 10 classificat… 2     no         0.737    0.149           0.618            0.737
## # … with 26 more rows, and 6 more variables: feature <chr>,
## #   feature_value <dbl>, feature_weight <dbl>, feature_desc <chr>, data <list>,
## #   prediction <list>
…
